<svg width="10" height="19" viewBox="0 0 10 19" fill="none" xmlns="http://www.w3.org/2000/svg">
<path d="M2.4069 18.8456V10.4112H0V7.37441H2.4069V4.78061C2.4069 2.74237 3.82867 0.870605 7.10472 0.870605C8.43114 0.870605 9.41196 0.988431 9.41196 0.988431L9.33468 3.82427C9.33468 3.82427 8.33439 3.81524 7.24284 3.81524C6.06144 3.81524 5.87217 4.31971 5.87217 5.157V7.37441H9.42859L9.27384 10.4112H5.87217V18.8456H2.4069Z" fill="#333333"/>
</svg>
