<svg width="22" height="22" viewBox="0 0 22 22" fill="none" xmlns="http://www.w3.org/2000/svg">
<path d="M7.334 11.0007C7.334 10.2754 7.54909 9.56641 7.95207 8.96335C8.35505 8.3603 8.92782 7.89029 9.59793 7.61277C10.268 7.33525 11.0054 7.26269 11.7168 7.40427C12.4281 7.54584 13.0815 7.89519 13.5943 8.40813C14.1071 8.92107 14.4563 9.57456 14.5977 10.2859C14.739 10.9973 14.6663 11.7347 14.3886 12.4047C14.1109 13.0748 13.6407 13.6474 13.0375 14.0502C12.4344 14.453 11.7253 14.6679 11 14.6677C10.0276 14.6675 9.09517 14.281 8.40769 13.5933C7.72021 12.9057 7.334 11.9731 7.334 11.0007ZM5.352 11.0007C5.352 12.1178 5.68325 13.2098 6.30386 14.1386C6.92447 15.0674 7.80657 15.7913 8.8386 16.2188C9.87064 16.6463 11.0063 16.7581 12.1019 16.5402C13.1975 16.3223 14.2039 15.7844 14.9937 14.9945C15.7836 14.2046 16.3215 13.1982 16.5395 12.1026C16.7574 11.007 16.6456 9.87137 16.2181 8.83934C15.7906 7.8073 15.0667 6.9252 14.1379 6.30459C13.2091 5.68398 12.1171 5.35273 11 5.35273C9.50206 5.35273 8.06547 5.94779 7.00626 7.00699C5.94706 8.0662 5.352 9.50279 5.352 11.0007ZM15.552 5.12873C15.5518 5.3898 15.629 5.64507 15.7739 5.86225C15.9188 6.07944 16.1248 6.24878 16.3659 6.34887C16.6071 6.44896 16.8724 6.4753 17.1285 6.42456C17.3846 6.37383 17.6199 6.24829 17.8047 6.06382C17.9894 5.87935 18.1153 5.64425 18.1664 5.38823C18.2176 5.13222 18.1916 4.86679 18.0919 4.62551C17.9922 4.38424 17.8231 4.17796 17.6062 4.03275C17.3892 3.88754 17.1341 3.80993 16.873 3.80973C16.5232 3.81 16.1877 3.94902 15.9403 4.19629C15.6928 4.44356 15.5535 4.7789 15.553 5.12873H15.552ZM6.553 19.9547C5.85536 19.9469 5.16427 19.819 4.51 19.5767C4.0323 19.4 3.6001 19.1189 3.245 18.7537C2.87933 18.3995 2.59805 17.9675 2.422 17.4897C2.1796 16.8355 2.05173 16.1444 2.044 15.4467C1.991 14.2877 1.98 13.9387 1.98 11.0017C1.98 8.06473 1.992 7.71673 2.044 6.55673C2.05264 5.85917 2.18048 5.16821 2.422 4.51373C2.59868 4.03603 2.87987 3.60383 3.245 3.24873C3.59947 2.88283 4.03185 2.60153 4.51 2.42573C5.16424 2.18333 5.85534 2.05546 6.553 2.04773C7.715 1.99273 8.064 1.98273 11 1.98273C13.936 1.98273 14.285 1.99473 15.445 2.04673C16.1426 2.05537 16.8335 2.18321 17.488 2.42473C17.9659 2.60108 18.3981 2.88231 18.753 3.24773C19.1184 3.6026 19.3997 4.03486 19.576 4.51273C19.8184 5.16697 19.9463 5.85808 19.954 6.55573C20.007 7.71573 20.018 8.06373 20.018 11.0007C20.018 13.9377 20.007 14.2857 19.954 15.4457C19.9458 16.1433 19.8179 16.8344 19.576 17.4887C19.3929 17.9631 19.1126 18.3938 18.7529 18.7533C18.3933 19.1127 17.9624 19.3929 17.488 19.5757C16.8338 19.8181 16.1427 19.946 15.445 19.9537C14.286 20.0067 13.937 20.0177 11 20.0177C8.063 20.0177 7.715 20.0067 6.556 19.9537L6.553 19.9547ZM6.465 0.0677324C5.5525 0.0857819 4.64968 0.258569 3.795 0.578732C3.06096 0.854856 2.39588 1.28755 1.846 1.84673C1.28619 2.3961 0.853401 3.06133 0.578 3.79573C0.257874 4.65042 0.0850881 5.55324 0.067 6.46573C0.012 7.63873 0 8.01373 0 11.0007C0 13.9877 0.012 14.3627 0.067 15.5357C0.0850881 16.4482 0.257874 17.351 0.578 18.2057C0.853752 18.9402 1.28688 19.6054 1.847 20.1547C2.39695 20.7141 3.06199 21.1471 3.796 21.4237C4.65072 21.7438 5.55351 21.9165 6.466 21.9347C7.638 21.9877 8.013 22.0007 11 22.0007C13.987 22.0007 14.362 21.9887 15.535 21.9337C16.4475 21.9156 17.3503 21.7429 18.205 21.4227C18.9357 21.1402 19.5993 20.708 20.1533 20.154C20.7073 19.6001 21.1394 18.9364 21.422 18.2057C21.7425 17.3512 21.9153 16.4483 21.933 15.5357C21.987 14.3617 22 13.9877 22 11.0007C22 8.01373 21.988 7.63873 21.934 6.46573C21.916 5.55323 21.7432 4.65041 21.423 3.79573C21.1463 3.06174 20.7133 2.3967 20.154 1.84673C19.6048 1.28725 18.9399 0.854495 18.206 0.578732C17.3514 0.258363 16.4485 0.0855693 15.536 0.0677324C14.363 0.0137324 13.988 0.000732422 11 0.000732422C8.012 0.000732422 7.638 0.0127324 6.465 0.0677324Z" fill="url(#paint0_radial_317_715)"/>
<path d="M7.334 11.0007C7.334 10.2754 7.54909 9.56641 7.95207 8.96335C8.35505 8.3603 8.92782 7.89029 9.59793 7.61277C10.268 7.33525 11.0054 7.26269 11.7168 7.40427C12.4281 7.54584 13.0815 7.89519 13.5943 8.40813C14.1071 8.92107 14.4563 9.57456 14.5977 10.2859C14.739 10.9973 14.6663 11.7347 14.3886 12.4047C14.1109 13.0748 13.6407 13.6474 13.0375 14.0502C12.4344 14.453 11.7253 14.6679 11 14.6677C10.0276 14.6675 9.09517 14.281 8.40769 13.5933C7.72021 12.9057 7.334 11.9731 7.334 11.0007ZM5.352 11.0007C5.352 12.1178 5.68325 13.2098 6.30386 14.1386C6.92447 15.0674 7.80657 15.7913 8.8386 16.2188C9.87064 16.6463 11.0063 16.7581 12.1019 16.5402C13.1975 16.3223 14.2039 15.7844 14.9937 14.9945C15.7836 14.2046 16.3215 13.1982 16.5395 12.1026C16.7574 11.007 16.6456 9.87137 16.2181 8.83934C15.7906 7.8073 15.0667 6.9252 14.1379 6.30459C13.2091 5.68398 12.1171 5.35273 11 5.35273C9.50206 5.35273 8.06547 5.94779 7.00626 7.00699C5.94706 8.0662 5.352 9.50279 5.352 11.0007ZM15.552 5.12873C15.5518 5.3898 15.629 5.64507 15.7739 5.86225C15.9188 6.07944 16.1248 6.24878 16.3659 6.34887C16.6071 6.44896 16.8724 6.4753 17.1285 6.42456C17.3846 6.37383 17.6199 6.24829 17.8047 6.06382C17.9894 5.87935 18.1153 5.64425 18.1664 5.38823C18.2176 5.13222 18.1916 4.86679 18.0919 4.62551C17.9922 4.38424 17.8231 4.17796 17.6062 4.03275C17.3892 3.88754 17.1341 3.80993 16.873 3.80973C16.5232 3.81 16.1877 3.94902 15.9403 4.19629C15.6928 4.44356 15.5535 4.7789 15.553 5.12873H15.552ZM6.553 19.9547C5.85536 19.9469 5.16427 19.819 4.51 19.5767C4.0323 19.4 3.6001 19.1189 3.245 18.7537C2.87933 18.3995 2.59805 17.9675 2.422 17.4897C2.1796 16.8355 2.05173 16.1444 2.044 15.4467C1.991 14.2877 1.98 13.9387 1.98 11.0017C1.98 8.06473 1.992 7.71673 2.044 6.55673C2.05264 5.85917 2.18048 5.16821 2.422 4.51373C2.59868 4.03603 2.87987 3.60383 3.245 3.24873C3.59947 2.88283 4.03185 2.60153 4.51 2.42573C5.16424 2.18333 5.85534 2.05546 6.553 2.04773C7.715 1.99273 8.064 1.98273 11 1.98273C13.936 1.98273 14.285 1.99473 15.445 2.04673C16.1426 2.05537 16.8335 2.18321 17.488 2.42473C17.9659 2.60108 18.3981 2.88231 18.753 3.24773C19.1184 3.6026 19.3997 4.03486 19.576 4.51273C19.8184 5.16697 19.9463 5.85808 19.954 6.55573C20.007 7.71573 20.018 8.06373 20.018 11.0007C20.018 13.9377 20.007 14.2857 19.954 15.4457C19.9458 16.1433 19.8179 16.8344 19.576 17.4887C19.3929 17.9631 19.1126 18.3938 18.7529 18.7533C18.3933 19.1127 17.9624 19.3929 17.488 19.5757C16.8338 19.8181 16.1427 19.946 15.445 19.9537C14.286 20.0067 13.937 20.0177 11 20.0177C8.063 20.0177 7.715 20.0067 6.556 19.9537L6.553 19.9547ZM6.465 0.0677324C5.5525 0.0857819 4.64968 0.258569 3.795 0.578732C3.06096 0.854856 2.39588 1.28755 1.846 1.84673C1.28619 2.3961 0.853401 3.06133 0.578 3.79573C0.257874 4.65042 0.0850881 5.55324 0.067 6.46573C0.012 7.63873 0 8.01373 0 11.0007C0 13.9877 0.012 14.3627 0.067 15.5357C0.0850881 16.4482 0.257874 17.351 0.578 18.2057C0.853752 18.9402 1.28688 19.6054 1.847 20.1547C2.39695 20.7141 3.06199 21.1471 3.796 21.4237C4.65072 21.7438 5.55351 21.9165 6.466 21.9347C7.638 21.9877 8.013 22.0007 11 22.0007C13.987 22.0007 14.362 21.9887 15.535 21.9337C16.4475 21.9156 17.3503 21.7429 18.205 21.4227C18.9357 21.1402 19.5993 20.708 20.1533 20.154C20.7073 19.6001 21.1394 18.9364 21.422 18.2057C21.7425 17.3512 21.9153 16.4483 21.933 15.5357C21.987 14.3617 22 13.9877 22 11.0007C22 8.01373 21.988 7.63873 21.934 6.46573C21.916 5.55323 21.7432 4.65041 21.423 3.79573C21.1463 3.06174 20.7133 2.3967 20.154 1.84673C19.6048 1.28725 18.9399 0.854495 18.206 0.578732C17.3514 0.258363 16.4485 0.0855693 15.536 0.0677324C14.363 0.0137324 13.988 0.000732422 11 0.000732422C8.012 0.000732422 7.638 0.0127324 6.465 0.0677324Z" fill="url(#paint1_radial_317_715)"/>
<defs>
<radialGradient id="paint0_radial_317_715" cx="0" cy="0" r="1" gradientUnits="userSpaceOnUse" gradientTransform="translate(2.926 22.1107) scale(28.71)">
<stop offset="0.09" stop-color="#FA8F21"/>
<stop offset="0.78" stop-color="#D82D7E"/>
</radialGradient>
<radialGradient id="paint1_radial_317_715" cx="0" cy="0" r="1" gradientUnits="userSpaceOnUse" gradientTransform="translate(13.332 23.1007) scale(22.638)">
<stop offset="0.64" stop-color="#8C3AAA" stop-opacity="0"/>
<stop offset="1" stop-color="#8C3AAA"/>
</radialGradient>
</defs>
</svg>
