<svg width="90" height="89" viewBox="0 0 90 89" fill="none" xmlns="http://www.w3.org/2000/svg">
<path opacity="0.06" d="M0.853516 44.5C0.853516 7.921 8.77452 0 45.3535 0C81.9325 0 89.8535 7.921 89.8535 44.5C89.8535 81.079 81.9325 89 45.3535 89C8.77452 89 0.853516 81.079 0.853516 44.5Z" fill="#0CAE9E"/>
<path d="M59.4648 44.5039V52.7539" stroke="#0CAE9E" stroke-width="2.5" stroke-linecap="round" stroke-linejoin="round"/>
<path d="M55.3398 48.6289H63.5898" stroke="#0CAE9E" stroke-width="2.5" stroke-linecap="round" stroke-linejoin="round"/>
<path d="M36.7773 29.3789V36.2539" stroke="#0CAE9E" stroke-width="2.5" stroke-linecap="round" stroke-linejoin="round"/>
<path d="M33.3398 32.8164H40.2148" stroke="#0CAE9E" stroke-width="2.5" stroke-linecap="round" stroke-linejoin="round"/>
<path d="M51.2148 54.1289V59.6289" stroke="#0CAE9E" stroke-width="2.5" stroke-linecap="round" stroke-linejoin="round"/>
<path d="M48.4648 56.8789H53.9648" stroke="#0CAE9E" stroke-width="2.5" stroke-linecap="round" stroke-linejoin="round"/>
<path d="M54.3825 28.9731L28.8238 54.5316C28.2869 55.0686 28.2869 55.9392 28.8238 56.4762L32.3787 60.031C32.9157 60.568 33.7863 60.568 34.3233 60.031L59.8819 34.4725C60.4189 33.9355 60.4189 33.0649 59.8819 32.5279L56.327 28.9731C55.7901 28.4361 54.9195 28.4361 54.3825 28.9731Z" stroke="#0CAE9E" stroke-width="2.5" stroke-linecap="round" stroke-linejoin="round"/>
<path d="M47.0898 36.2539L52.5898 41.7539" stroke="#0CAE9E" stroke-width="2.5" stroke-linecap="round" stroke-linejoin="round"/>
</svg>
