<svg width="90" height="89" viewBox="0 0 90 89" fill="none" xmlns="http://www.w3.org/2000/svg">
<path opacity="0.06" d="M0.855469 44.5C0.855469 7.921 8.77647 0 45.3555 0C81.9345 0 89.8555 7.921 89.8555 44.5C89.8555 81.079 81.9345 89 45.3555 89C8.77647 89 0.855469 81.079 0.855469 44.5Z" fill="#0CAE9E"/>
<path d="M56.7354 42.8574V33.2627C56.7354 31.5444 55.3391 30.1839 53.6565 30.1839H49.8259V29.1098C49.8259 28.5012 49.3247 28 48.7162 28C48.1076 28 47.6064 28.5012 47.6064 29.1098V30.1479L39.9808 30.1481V29.1098C39.9808 28.5012 39.4796 28 38.871 28C38.2624 28 37.761 28.5012 37.761 29.1098V30.1479L33.9304 30.1481C32.2121 30.1481 30.8516 31.5443 30.8516 33.227V49.9818C30.8516 51.7002 32.2478 53.0607 33.9304 53.0607H46.4966C47.0335 57.6075 50.9359 61.1875 55.6258 61.1875C60.7095 61.1875 64.8266 57.0705 64.8266 51.9867C64.8623 47.2968 61.3179 43.3944 56.7356 42.8574L56.7354 42.8574ZM33.9302 32.3677H37.761V33.4058C37.761 34.0144 38.2622 34.5156 38.8708 34.5156C39.4794 34.5156 39.9805 34.0144 39.9805 33.4058V32.3677H47.6061V33.4058C47.6061 34.0144 48.1073 34.5156 48.7159 34.5156C49.3245 34.5156 49.8257 34.0144 49.8257 33.4058V32.3677H53.6565C54.1577 32.3677 54.5515 32.7615 54.5515 33.2627V37.0219H33.071L33.0707 33.2627C33.0707 32.7615 33.4645 32.3677 33.93 32.3677H33.9302ZM33.0709 50.0176V39.2057H54.5514V42.8574C50.3627 43.3586 47.0333 46.6883 46.532 50.8768L33.9301 50.8766C33.4646 50.8766 33.0708 50.4828 33.0708 50.0173L33.0709 50.0176ZM55.6613 59.0036C51.7948 59.0036 48.6443 55.853 48.6443 51.9866C48.6445 48.1201 51.7951 45.0054 55.6613 45.0054C59.5278 45.0054 62.6783 48.156 62.6783 52.0224C62.6783 55.8887 59.5277 59.0036 55.6613 59.0036Z" fill="#0CAE9E"/>
<path d="M58.7043 50.8763H56.7352V48.227C56.7352 47.6184 56.234 47.1172 55.6254 47.1172C55.0168 47.1172 54.5156 47.6184 54.5156 48.227V51.9861C54.5156 52.5947 55.0168 53.0959 55.6254 53.0959H58.7043C59.3129 53.0959 59.814 52.5947 59.814 51.9861C59.814 51.3775 59.3128 50.8763 58.7043 50.8763V50.8763Z" fill="#0CAE9E"/>
</svg>
