<svg width="8" height="13" viewBox="0 0 8 13" fill="none" xmlns="http://www.w3.org/2000/svg">
<path d="M8 10.8513L6.00395 12.127C4.21564 12.0455 2.93754 11.8621 2.16963 11.577C0.723207 11.0423 0 10.0391 0 8.56744C0 7.68138 0.205128 6.88953 0.615385 6.19188C0.799473 5.87616 1.18606 5.38985 1.77515 4.73294C1.28073 4.4936 0.930966 4.27973 0.725839 4.09131C0.294543 3.6992 0.0788953 3.20525 0.0788957 2.60945C0.0788953 2.07476 0.315581 1.54516 0.788955 1.02065C1.32544 0.42486 1.97238 0.12696 2.72978 0.126953C3.28205 0.12696 3.96844 0.435044 4.78896 1.05121C2.07495 1.1887 0.717948 1.59099 0.717949 2.25808C0.717948 2.56871 1.02038 2.86407 1.62525 3.14414C2.14595 3.38348 2.72452 3.54898 3.36095 3.64064C4.4497 3.07031 5.54109 2.65783 6.63511 2.40321L6.30375 3.59481C4.547 4.25172 3.35305 4.77368 2.72189 5.16069C1.36489 5.98564 0.68639 6.94045 0.686391 8.02511C0.68639 9.8787 2.62985 10.8055 6.51677 10.8055C7.17422 10.8055 7.66863 10.7979 8 10.7826V10.8513Z" fill="#626F76"/>
</svg>
